{
  "main.css": "static/css/main.25dd3ad3.css",
  "main.css.map": "static/css/main.25dd3ad3.css.map",
  "main.js": "static/js/main.c791ccf5.js",
  "main.js.map": "static/js/main.c791ccf5.js.map",
  "static/media/logo.svg": "static/media/logo.5d5d9eef.svg"
}